<?xml version="1.0" encoding="UTF-8" standalone="no"?>
<!-- Created with Inkscape (http://www.inkscape.org/) -->

<svg
   xmlns:dc="http://purl.org/dc/elements/1.1/"
   xmlns:cc="http://creativecommons.org/ns#"
   xmlns:rdf="http://www.w3.org/1999/02/22-rdf-syntax-ns#"
   xmlns:svg="http://www.w3.org/2000/svg"
   xmlns="http://www.w3.org/2000/svg"
   xmlns:xlink="http://www.w3.org/1999/xlink"
   xmlns:sodipodi="http://sodipodi.sourceforge.net/DTD/sodipodi-0.dtd"
   xmlns:inkscape="http://www.inkscape.org/namespaces/inkscape"
   width="64"
   height="64"
   id="svg7110"
   version="1.1"
   inkscape:version="0.92.1 r15371"
   sodipodi:docname="action-states.svg">
  <defs
     id="defs7112">
    <linearGradient
       gradientUnits="objectBoundingBox"
       x1="0"
       y1="0"
       x2="1"
       y2="0"
       id="gradient2-1">
      <stop
         offset="0"
         stop-color="#000000"
         stop-opacity="1"
         id="stop115-7" />
      <stop
         offset="1"
         stop-color="#ff0000"
         stop-opacity="1"
         id="stop117-4" />
    </linearGradient>
    <linearGradient
       gradientUnits="objectBoundingBox"
       x1="0"
       y1="0"
       x2="1"
       y2="0"
       id="gradient3-0">
      <stop
         offset="0"
         stop-color="#000000"
         stop-opacity="1"
         id="stop120-9" />
      <stop
         offset="1"
         stop-color="#00ff00"
         stop-opacity="1"
         id="stop122-4" />
    </linearGradient>
    <linearGradient
       gradientUnits="objectBoundingBox"
       x1="0"
       y1="0"
       x2="1"
       y2="0"
       id="gradient4-8">
      <stop
         offset="0"
         stop-color="#000000"
         stop-opacity="1"
         id="stop125-8" />
      <stop
         offset="1"
         stop-color="#0000ff"
         stop-opacity="1"
         id="stop127-2" />
    </linearGradient>
    <linearGradient
       inkscape:collect="always"
       xlink:href="#gradient5-4"
       id="linearGradient7069"
       gradientUnits="userSpaceOnUse"
       gradientTransform="matrix(2.0514223,0,0,0.48746668,1980.1973,515.1436)"
       x1="0"
       y1="0"
       x2="98.468269"
       y2="0" />
    <linearGradient
       gradientUnits="objectBoundingBox"
       x1="0"
       y1="0"
       x2="1"
       y2="0"
       id="gradient5-4">
      <stop
         offset="0"
         stop-color="#000000"
         stop-opacity="1"
         id="stop130-5" />
      <stop
         offset="1"
         stop-color="#ff0000"
         stop-opacity="1"
         id="stop132-5" />
    </linearGradient>
    <linearGradient
       inkscape:collect="always"
       xlink:href="#gradient6-1"
       id="linearGradient7071"
       gradientUnits="userSpaceOnUse"
       gradientTransform="matrix(2.0514223,0,0,0.48746668,1980.1973,579.1436)"
       x1="0"
       y1="0"
       x2="98.468269"
       y2="0" />
    <linearGradient
       gradientUnits="objectBoundingBox"
       x1="0"
       y1="0"
       x2="1"
       y2="0"
       id="gradient6-1">
      <stop
         offset="0"
         stop-color="#000000"
         stop-opacity="1"
         id="stop135-7" />
      <stop
         offset="1"
         stop-color="#00ff00"
         stop-opacity="1"
         id="stop137-1" />
    </linearGradient>
    <linearGradient
       inkscape:collect="always"
       xlink:href="#gradient7-1"
       id="linearGradient7073"
       gradientUnits="userSpaceOnUse"
       gradientTransform="matrix(2.0514223,0,0,0.48746668,1980.1973,643.1436)"
       x1="0"
       y1="0"
       x2="98.468269"
       y2="0" />
    <linearGradient
       gradientUnits="objectBoundingBox"
       x1="0"
       y1="0"
       x2="1"
       y2="0"
       id="gradient7-1">
      <stop
         offset="0"
         stop-color="#000000"
         stop-opacity="1"
         id="stop140-5" />
      <stop
         offset="1"
         stop-color="#0000ff"
         stop-opacity="1"
         id="stop142-2" />
    </linearGradient>
  </defs>
  <sodipodi:namedview
     id="base"
     pagecolor="#ffffff"
     bordercolor="#666666"
     borderopacity="1.0"
     inkscape:pageopacity="0.0"
     inkscape:pageshadow="2"
     inkscape:zoom="7.9195959"
     inkscape:cx="3.1921963"
     inkscape:cy="26.053561"
     inkscape:document-units="px"
     inkscape:current-layer="layer1"
     showgrid="false"
     fit-margin-top="0"
     fit-margin-left="0"
     fit-margin-right="0"
     fit-margin-bottom="0"
     inkscape:window-width="944"
     inkscape:window-height="1002"
     inkscape:window-x="960"
     inkscape:window-y="0"
     inkscape:window-maximized="0" />
  <metadata
     id="metadata7115">
    <rdf:RDF>
      <cc:Work
         rdf:about="">
        <dc:format>image/svg+xml</dc:format>
        <dc:type
           rdf:resource="http://purl.org/dc/dcmitype/StillImage" />
        <dc:title></dc:title>
      </cc:Work>
    </rdf:RDF>
  </metadata>
  <g
     inkscape:label="Layer 1"
     inkscape:groupmode="layer"
     id="layer1"
     transform="translate(193.1424,-215.47171)">
    <g
       id="g11257"
       transform="matrix(0.23437506,0,0,0.234375,-1344.123,410.71736)">
      <path
         style="font-style:normal;font-weight:400;font-size:8.25px;font-family:'MS Shell Dlg 2';vector-effect:non-scaling-stroke;fill:#0096db;fill-opacity:1;fill-rule:evenodd;stroke:none;stroke-width:1.06666672"
         inkscape:connector-curvature="0"
         d="m 4910.8493,-827.71477 c 0,-2.94552 2.3878,-5.33334 5.3333,-5.33334 h 262.4 c 2.9451,0 5.3333,2.38782 5.3333,5.33334 v 262.4 c 0,2.94506 -2.3882,5.33333 -5.3333,5.33333 h -262.4 c -2.9455,0 -5.3333,-2.38827 -5.3333,-5.33333 v -262.4"
         id="path8258" />
      <path
         style="font-style:normal;font-weight:400;font-size:8.25px;font-family:'MS Shell Dlg 2';vector-effect:non-scaling-stroke;fill:#ffffff;fill-opacity:1;fill-rule:evenodd;stroke:none;stroke-width:1.06666672"
         inkscape:connector-curvature="0"
         d="m 5179.6493,-745.58144 c 0,-42.41547 -59.2182,-76.8 -132.2667,-76.8 -73.0488,0 -132.2667,34.38453 -132.2667,76.8 h 264.5334"
         id="path8262" />
      <path
         style="font-style:normal;font-weight:400;font-size:8.25px;font-family:'MS Shell Dlg 2';vector-effect:non-scaling-stroke;fill:#ffffff;fill-opacity:1;fill-rule:evenodd;stroke:none;stroke-width:1.06666672"
         inkscape:connector-curvature="0"
         d="m 4915.1159,-746.64811 c 0,-2.94549 2.3879,-5.33333 5.3334,-5.33333 h 253.8666 c 2.9451,0 5.3334,2.38784 5.3334,5.33333 v 177.06667 c 0,2.94507 -2.3883,5.33333 -5.3334,5.33333 h -253.8666 c -2.9455,0 -5.3334,-2.38826 -5.3334,-5.33333 v -177.06667"
         id="path8264" />
      <path
         inkscape:connector-curvature="0"
         d="m 5014.7871,-769.00885 c -22.0138,5.89408 -39.3478,23.23217 -45.2362,45.24821"
         id="path8272"
         style="font-style:normal;font-weight:400;font-size:8.25px;font-family:'MS Shell Dlg 2';vector-effect:none;fill:none;stroke:#c0c0c0;stroke-width:37.33333206;stroke-linecap:round;stroke-linejoin:round;stroke-opacity:1" />
      <path
         inkscape:connector-curvature="0"
         d="m 5014.7871,-769.00885 c -22.0138,5.89408 -39.3478,23.23217 -45.2362,45.24821"
         id="path8276"
         style="font-style:normal;font-weight:400;font-size:8.25px;font-family:'MS Shell Dlg 2';vector-effect:none;fill:none;stroke:#dcdcdc;stroke-width:26.66666603;stroke-linecap:round;stroke-linejoin:round;stroke-opacity:1" />
      <path
         inkscape:connector-curvature="0"
         d="m 5125.21,-723.77696 c -5.8941,-22.01373 -23.2322,-39.34784 -45.2482,-45.23616"
         id="path8284"
         style="font-style:normal;font-weight:400;font-size:8.25px;font-family:'MS Shell Dlg 2';vector-effect:none;fill:none;stroke:#c0c0c0;stroke-width:37.33333206;stroke-linecap:round;stroke-linejoin:round;stroke-opacity:1" />
      <path
         inkscape:connector-curvature="0"
         d="m 5125.21,-723.77696 c -5.8941,-22.01373 -23.2322,-39.34784 -45.2482,-45.23616"
         id="path8288"
         style="font-style:normal;font-weight:400;font-size:8.25px;font-family:'MS Shell Dlg 2';vector-effect:none;fill:none;stroke:#dcdcdc;stroke-width:26.66666603;stroke-linecap:round;stroke-linejoin:round;stroke-opacity:1" />
      <path
         inkscape:connector-curvature="0"
         d="m 4969.5552,-658.58592 c 5.8941,22.01373 23.2322,39.34784 45.2482,45.23616"
         id="path8296"
         style="font-style:normal;font-weight:400;font-size:8.25px;font-family:'MS Shell Dlg 2';vector-effect:none;fill:none;stroke:#c0c0c0;stroke-width:37.33333206;stroke-linecap:round;stroke-linejoin:round;stroke-opacity:1" />
      <path
         inkscape:connector-curvature="0"
         d="m 4969.5552,-658.58592 c 5.8941,22.01373 23.2322,39.34784 45.2482,45.23616"
         id="path8300"
         style="font-style:normal;font-weight:400;font-size:8.25px;font-family:'MS Shell Dlg 2';vector-effect:none;fill:none;stroke:#dcdcdc;stroke-width:26.66666603;stroke-linecap:round;stroke-linejoin:round;stroke-opacity:1" />
      <path
         inkscape:connector-curvature="0"
         d="m 5079.9781,-613.35403 c 22.0138,-5.89408 39.3479,-23.23217 45.2362,-45.24821"
         id="path8308"
         style="font-style:normal;font-weight:400;font-size:8.25px;font-family:'MS Shell Dlg 2';vector-effect:none;fill:none;stroke:#c0c0c0;stroke-width:37.33333206;stroke-linecap:round;stroke-linejoin:round;stroke-opacity:1" />
      <path
         inkscape:connector-curvature="0"
         d="m 5079.9781,-613.35403 c 22.0138,-5.89408 39.3479,-23.23217 45.2362,-45.24821"
         id="path8312"
         style="font-style:normal;font-weight:400;font-size:8.25px;font-family:'MS Shell Dlg 2';vector-effect:none;fill:none;stroke:#dcdcdc;stroke-width:26.66666603;stroke-linecap:round;stroke-linejoin:round;stroke-opacity:1" />
    </g>
  </g>
</svg>
