<?xml version="1.0" encoding="UTF-8" standalone="no"?>
<svg
   xmlns:dc="http://purl.org/dc/elements/1.1/"
   xmlns:cc="http://creativecommons.org/ns#"
   xmlns:rdf="http://www.w3.org/1999/02/22-rdf-syntax-ns#"
   xmlns:svg="http://www.w3.org/2000/svg"
   xmlns="http://www.w3.org/2000/svg"
   xmlns:sodipodi="http://sodipodi.sourceforge.net/DTD/sodipodi-0.dtd"
   xmlns:inkscape="http://www.inkscape.org/namespaces/inkscape"
   id="svg141"
   version="1.1"
   viewBox="0 0 552 222"
   height="222pt"
   width="552pt"
   sodipodi:docname="distance-sensor.svg"
   inkscape:version="0.92.1 r15371">
  <sodipodi:namedview
     pagecolor="#ffffff"
     bordercolor="#666666"
     borderopacity="1"
     objecttolerance="10"
     gridtolerance="10"
     guidetolerance="10"
     inkscape:pageopacity="0"
     inkscape:pageshadow="2"
     inkscape:window-width="975"
     inkscape:window-height="480"
     id="namedview72"
     showgrid="false"
     inkscape:zoom="0.46467391"
     inkscape:cx="368"
     inkscape:cy="148"
     inkscape:window-x="79"
     inkscape:window-y="27"
     inkscape:window-maximized="0"
     inkscape:current-layer="svg141" />
  <metadata
     id="metadata147">
    <rdf:RDF>
      <cc:Work
         rdf:about="">
        <dc:format>image/svg+xml</dc:format>
        <dc:type
           rdf:resource="http://purl.org/dc/dcmitype/StillImage" />
        <dc:title></dc:title>
        <cc:license
           rdf:resource="http://creativecommons.org/licenses/by-nc-sa/4.0/" />
        <dc:creator>
          <cc:Agent>
            <dc:title>Stefan Rothe</dc:title>
          </cc:Agent>
        </dc:creator>
      </cc:Work>
      <cc:License
         rdf:about="http://creativecommons.org/licenses/by-nc-sa/4.0/">
        <cc:permits
           rdf:resource="http://creativecommons.org/ns#Reproduction" />
        <cc:permits
           rdf:resource="http://creativecommons.org/ns#Distribution" />
        <cc:requires
           rdf:resource="http://creativecommons.org/ns#Notice" />
        <cc:requires
           rdf:resource="http://creativecommons.org/ns#Attribution" />
        <cc:prohibits
           rdf:resource="http://creativecommons.org/ns#CommercialUse" />
        <cc:permits
           rdf:resource="http://creativecommons.org/ns#DerivativeWorks" />
        <cc:requires
           rdf:resource="http://creativecommons.org/ns#ShareAlike" />
      </cc:License>
    </rdf:RDF>
  </metadata>
  <defs
     id="defs145" />
  <path
     style="fill:none;stroke:#000000;stroke-width:1;stroke-linecap:butt;stroke-linejoin:miter;stroke-miterlimit:10;stroke-opacity:1"
     d="m 181.10156,21.10156 h 60 v 20 h -60 z m 0,0"
     id="path6" />
  <path
     style="fill:none;stroke:#000000;stroke-width:1;stroke-linecap:butt;stroke-linejoin:miter;stroke-miterlimit:10;stroke-opacity:1"
     d="m 69.0664,108.55078 -9.96484,36.55078"
     id="path8" />
  <path
     style="fill:#000000;fill-opacity:1;fill-rule:evenodd;stroke:#000000;stroke-width:1;stroke-linecap:butt;stroke-linejoin:miter;stroke-miterlimit:10;stroke-opacity:1"
     d="m 71.04296,101.3164 2.19142,10.96094 -4.16798,-3.72656 -5.48046,1.09766 z m 0,0"
     id="path10" />
  <path
     style="fill:none;stroke:#000000;stroke-width:1.00248361;stroke-linecap:butt;stroke-linejoin:miter;stroke-miterlimit:10;stroke-opacity:1"
     d="m 61.101572,151.10156 c 0,-5.52344 -4.457048,-10 -9.953127,-10 -5.496099,0 -9.949226,4.47656 -9.949226,10"
     id="path12" />
  <path
     style="fill:none;stroke:#000000;stroke-width:1.00248361;stroke-linecap:butt;stroke-linejoin:miter;stroke-miterlimit:10;stroke-opacity:1"
     d="m 41.199219,151.10156 v 20 h 19.902353 v -20"
     id="path14" />
  <path
     style="fill:none;stroke:#000000;stroke-width:1.00248361;stroke-linecap:butt;stroke-linejoin:miter;stroke-miterlimit:10;stroke-opacity:1"
     d="m 101.10157,151.10156 c 0,-5.52344 -4.457046,-10 -9.953125,-10 -5.496099,0 -9.949226,4.47656 -9.949226,10"
     id="path16" />
  <path
     style="fill:none;stroke:#000000;stroke-width:1.00248361;stroke-linecap:butt;stroke-linejoin:miter;stroke-miterlimit:10;stroke-opacity:1"
     d="m 81.199219,151.10156 v 20 h 19.902351 v -20"
     id="path18" />
  <path
     style="fill:none;stroke:#000000;stroke-width:1;stroke-linecap:butt;stroke-linejoin:miter;stroke-miterlimit:10;stroke-opacity:1"
     d="m 59.95312,108.73828 -4.85156,32.36328"
     id="path20" />
  <path
     style="fill:#000000;fill-opacity:1;fill-rule:evenodd;stroke:#000000;stroke-width:1;stroke-linecap:butt;stroke-linejoin:miter;stroke-miterlimit:10;stroke-opacity:1"
     d="m 61.0664,101.32032 3.46094,10.6328 -4.57422,-3.21484 -5.3125,1.73048 z m 0,0"
     id="path22" />
  <path
     style="fill:none;stroke:#000000;stroke-width:1;stroke-linecap:butt;stroke-linejoin:miter;stroke-miterlimit:10;stroke-opacity:1"
     d="m 33.13282,108.55078 9.96874,36.55078"
     id="path24" />
  <path
     style="fill:#000000;fill-opacity:1;fill-rule:evenodd;stroke:#000000;stroke-width:1;stroke-linecap:butt;stroke-linejoin:miter;stroke-miterlimit:10;stroke-opacity:1"
     d="m 31.16016,101.3164 7.45312,8.33204 -5.48046,-1.09766 -4.16798,3.72656 z m 0,0"
     id="path26" />
  <path
     style="fill:none;stroke:#000000;stroke-width:1.00248361;stroke-linecap:butt;stroke-linejoin:miter;stroke-miterlimit:10;stroke-opacity:1"
     d="m 201.10157,151.10156 c 0,-5.52344 -4.45705,-10 -9.95312,-10 -5.4961,0 -9.94923,4.47656 -9.94923,10"
     id="path28" />
  <path
     style="fill:none;stroke:#000000;stroke-width:1.00248361;stroke-linecap:butt;stroke-linejoin:miter;stroke-miterlimit:10;stroke-opacity:1"
     d="m 181.19922,151.10156 v 20 h 19.90235 v -20"
     id="path30" />
  <path
     style="fill:none;stroke:#000000;stroke-width:1.00248361;stroke-linecap:butt;stroke-linejoin:miter;stroke-miterlimit:10;stroke-opacity:1"
     d="m 241.10157,151.10156 c 0,-5.52344 -4.45705,-10 -9.95312,-10 -5.4961,0 -9.94923,4.47656 -9.94923,10"
     id="path32" />
  <path
     style="fill:none;stroke:#000000;stroke-width:1.00248361;stroke-linecap:butt;stroke-linejoin:miter;stroke-miterlimit:10;stroke-opacity:1"
     d="m 221.19922,151.10156 v 20 h 19.90235 v -20"
     id="path34" />
  <path
     style="fill:none;stroke:#000000;stroke-width:1;stroke-linecap:butt;stroke-linejoin:miter;stroke-miterlimit:10;stroke-opacity:1"
     d="M 229.58594,133.52734 211.10156,41.10156"
     id="path36" />
  <path
     style="fill:#000000;fill-opacity:1;fill-rule:evenodd;stroke:#000000;stroke-width:1;stroke-linecap:butt;stroke-linejoin:miter;stroke-miterlimit:10;stroke-opacity:1"
     d="m 231.05468,140.8789 -6.86328,-8.82422 5.39454,1.47266 4.41016,-3.43358 z m 0,0"
     id="path38" />
  <path
     style="fill:none;stroke:#000000;stroke-width:1;stroke-linecap:butt;stroke-linejoin:miter;stroke-miterlimit:10;stroke-opacity:1"
     d="m 331.10156,61.10156 h 60 v 20 h -60 z m 0,0"
     id="path40" />
  <path
     style="fill:none;stroke:#000000;stroke-width:1.00248361;stroke-linecap:butt;stroke-linejoin:miter;stroke-miterlimit:10;stroke-opacity:1"
     d="m 341.10156,151.10156 c 0,-5.52344 -4.45703,-10 -9.94921,-10 -5.4961,0 -9.95313,4.47656 -9.95313,10"
     id="path42" />
  <path
     style="fill:none;stroke:#000000;stroke-width:1.00248361;stroke-linecap:butt;stroke-linejoin:miter;stroke-miterlimit:10;stroke-opacity:1"
     d="m 321.19922,151.10156 v 20 h 19.90234 v -20"
     id="path44" />
  <path
     style="fill:none;stroke:#000000;stroke-width:1.00248361;stroke-linecap:butt;stroke-linejoin:miter;stroke-miterlimit:10;stroke-opacity:1"
     d="m 381.10156,151.10156 c 0,-5.52344 -4.45703,-10 -9.94921,-10 -5.4961,0 -9.95313,4.47656 -9.95313,10"
     id="path46" />
  <path
     style="fill:none;stroke:#000000;stroke-width:1.00248361;stroke-linecap:butt;stroke-linejoin:miter;stroke-miterlimit:10;stroke-opacity:1"
     d="m 361.19922,151.10156 v 20 h 19.90234 v -20"
     id="path48" />
  <path
     style="fill:none;stroke:#000000;stroke-width:1;stroke-linecap:butt;stroke-linejoin:miter;stroke-miterlimit:10;stroke-opacity:1"
     d="m 42.2461,108.73828 4.85546,32.36328"
     id="path50" />
  <path
     style="fill:#000000;fill-opacity:1;fill-rule:evenodd;stroke:#000000;stroke-width:1;stroke-linecap:butt;stroke-linejoin:miter;stroke-miterlimit:10;stroke-opacity:1"
     d="m 41.13282,101.32032 6.42968,9.14844 -5.3164,-1.73048 -4.57422,3.21484 z m 0,0"
     id="path52" />
  <path
     style="fill:none;stroke:#000000;stroke-width:1;stroke-linecap:butt;stroke-linejoin:miter;stroke-miterlimit:10;stroke-opacity:1"
     d="m 226.96094,48.51954 -27.85938,96.58202"
     id="path54" />
  <path
     style="fill:#000000;fill-opacity:1;fill-rule:evenodd;stroke:#000000;stroke-width:1;stroke-linecap:butt;stroke-linejoin:miter;stroke-miterlimit:10;stroke-opacity:1"
     d="m 229.03906,41.3164 2.03126,10.9922 -4.10938,-3.78906 -5.5,1.01952 z m 0,0"
     id="path56" />
  <path
     style="fill:none;stroke:#000000;stroke-width:1;stroke-linecap:butt;stroke-linejoin:miter;stroke-miterlimit:10;stroke-opacity:1"
     d="m 209.8789,48.72656 -14.77734,92.375"
     id="path58" />
  <path
     style="fill:#000000;fill-opacity:1;fill-rule:evenodd;stroke:#000000;stroke-width:1;stroke-linecap:butt;stroke-linejoin:miter;stroke-miterlimit:10;stroke-opacity:1"
     d="m 211.0664,41.32032 3.35548,10.66406 -4.54298,-3.25782 -5.33202,1.6797 z m 0,0"
     id="path60" />
  <path
     style="fill:none;stroke:#000000;stroke-width:1;stroke-linecap:butt;stroke-linejoin:miter;stroke-miterlimit:10;stroke-opacity:1"
     d="m 173.13282,108.55078 9.96874,36.55078"
     id="path62" />
  <path
     style="fill:#000000;fill-opacity:1;fill-rule:evenodd;stroke:#000000;stroke-width:1;stroke-linecap:butt;stroke-linejoin:miter;stroke-miterlimit:10;stroke-opacity:1"
     d="m 171.16016,101.3164 7.45312,8.33204 -5.48046,-1.09766 -4.16798,3.72656 z m 0,0"
     id="path64" />
  <path
     style="fill:none;stroke:#000000;stroke-width:1;stroke-linecap:butt;stroke-linejoin:miter;stroke-miterlimit:10;stroke-opacity:1"
     d="m 182.2461,108.73828 4.85546,32.36328"
     id="path66" />
  <path
     style="fill:#000000;fill-opacity:1;fill-rule:evenodd;stroke:#000000;stroke-width:1;stroke-linecap:butt;stroke-linejoin:miter;stroke-miterlimit:10;stroke-opacity:1"
     d="m 181.13282,101.32032 6.42968,9.14844 -5.3164,-1.73048 -4.57422,3.21484 z m 0,0"
     id="path68" />
  <path
     style="fill:none;stroke:#000000;stroke-width:1;stroke-linecap:butt;stroke-linejoin:miter;stroke-miterlimit:10;stroke-opacity:1"
     d="M 238.8789,73.70312 229.10156,41.10156"
     id="path70" />
  <path
     style="fill:#000000;fill-opacity:1;fill-rule:evenodd;stroke:#000000;stroke-width:1;stroke-linecap:butt;stroke-linejoin:miter;stroke-miterlimit:10;stroke-opacity:1"
     d="m 241.03516,80.88672 -7.66016,-8.14062 5.5039,0.95702 4.07422,-3.83202 z m 0,0"
     id="path72" />
  <path
     style="fill:none;stroke:#000000;stroke-width:1;stroke-linecap:butt;stroke-linejoin:miter;stroke-miterlimit:10;stroke-opacity:1"
     d="m 358.58984,88.40234 -19.48828,56.69922"
     id="path74" />
  <path
     style="fill:#000000;fill-opacity:1;fill-rule:evenodd;stroke:#000000;stroke-width:1;stroke-linecap:butt;stroke-linejoin:miter;stroke-miterlimit:10;stroke-opacity:1"
     d="m 361.02734,81.3125 1.4766,11.08204 -3.91406,-3.9922 -5.54296,0.7422 z m 0,0"
     id="path76" />
  <path
     style="fill:none;stroke:#000000;stroke-width:1;stroke-linecap:butt;stroke-linejoin:miter;stroke-miterlimit:10;stroke-opacity:1"
     d="m 345.58594,88.67188 -10.48438,52.42968"
     id="path78" />
  <path
     style="fill:#000000;fill-opacity:1;fill-rule:evenodd;stroke:#000000;stroke-width:1;stroke-linecap:butt;stroke-linejoin:miter;stroke-miterlimit:10;stroke-opacity:1"
     d="m 347.05468,81.32032 2.94142,10.78514 -4.41016,-3.43358 -5.39454,1.47266 z m 0,0"
     id="path80" />
  <path
     style="fill:none;stroke:#000000;stroke-width:1;stroke-linecap:butt;stroke-linejoin:miter;stroke-miterlimit:10;stroke-opacity:1"
     d="m 313.13282,108.55078 9.96874,36.55078"
     id="path82" />
  <path
     style="fill:#000000;fill-opacity:1;fill-rule:evenodd;stroke:#000000;stroke-width:1;stroke-linecap:butt;stroke-linejoin:miter;stroke-miterlimit:10;stroke-opacity:1"
     d="m 311.16016,101.3164 7.45312,8.33204 -5.48046,-1.09766 -4.16798,3.72656 z m 0,0"
     id="path84" />
  <path
     style="fill:none;stroke:#000000;stroke-width:1;stroke-linecap:butt;stroke-linejoin:miter;stroke-miterlimit:10;stroke-opacity:1"
     d="m 322.2461,108.73828 4.85546,32.36328"
     id="path86" />
  <path
     style="fill:#000000;fill-opacity:1;fill-rule:evenodd;stroke:#000000;stroke-width:1;stroke-linecap:butt;stroke-linejoin:miter;stroke-miterlimit:10;stroke-opacity:1"
     d="m 321.13282,101.32032 6.42968,9.14844 -5.3164,-1.73048 -4.57422,3.21484 z m 0,0"
     id="path88" />
  <path
     style="fill:none;stroke:#000000;stroke-width:1;stroke-linecap:butt;stroke-linejoin:miter;stroke-miterlimit:10;stroke-opacity:1"
     d="M 376.94532,135.6836 361.10156,81.10156"
     id="path90" />
  <path
     style="fill:#000000;fill-opacity:1;fill-rule:evenodd;stroke:#000000;stroke-width:1;stroke-linecap:butt;stroke-linejoin:miter;stroke-miterlimit:10;stroke-opacity:1"
     d="m 379.03906,142.88672 -7.58984,-8.21094 5.4961,1.00782 4.10546,-3.79688 z m 0,0"
     id="path92" />
  <path
     style="fill:none;stroke:#000000;stroke-width:1;stroke-linecap:butt;stroke-linejoin:miter;stroke-miterlimit:10;stroke-opacity:1"
     d="M 359.44922,137.55468 347.10156,81.10156"
     id="path94" />
  <path
     style="fill:#000000;fill-opacity:1;fill-rule:evenodd;stroke:#000000;stroke-width:1;stroke-linecap:butt;stroke-linejoin:miter;stroke-miterlimit:10;stroke-opacity:1"
     d="m 361.05078,144.88282 -7.01952,-8.70314 5.41796,1.375 4.35156,-3.51172 z m 0,0"
     id="path96" />
  <path
     style="fill:#ffffff;fill-opacity:1;fill-rule:evenodd;stroke:#000000;stroke-width:1;stroke-linecap:butt;stroke-linejoin:miter;stroke-miterlimit:10;stroke-opacity:1"
     d="m 101.10156,191.10156 c 0,5.51954 -4.48046,10 -10,10 -5.52344,0 -10,-4.48046 -10,-10 0,-5.52344 4.47656,-10 10,-10 5.51954,0 10,4.47656 10,10"
     id="path98" />
  <path
     style="fill:#ff8585;fill-opacity:1;fill-rule:evenodd;stroke:#000000;stroke-width:1;stroke-linecap:butt;stroke-linejoin:miter;stroke-miterlimit:10;stroke-opacity:1"
     d="m 241.10156,191.10156 c 0,5.51954 -4.48046,10 -10,10 -5.52344,0 -10,-4.48046 -10,-10 0,-5.52344 4.47656,-10 10,-10 5.51954,0 10,4.47656 10,10"
     id="path100" />
  <path
     style="fill:#ff0000;fill-opacity:1;fill-rule:evenodd;stroke:#000000;stroke-width:1;stroke-linecap:butt;stroke-linejoin:miter;stroke-miterlimit:10;stroke-opacity:1"
     d="m 381.10156,191.10156 c 0,5.51954 -4.48046,10 -10,10 -5.52344,0 -10,-4.48046 -10,-10 0,-5.52344 4.47656,-10 10,-10 5.51954,0 10,4.47656 10,10"
     id="path102" />
  <path
     style="fill:#000000;fill-opacity:1;fill-rule:evenodd;stroke:#000000;stroke-width:1;stroke-linecap:butt;stroke-linejoin:miter;stroke-miterlimit:10;stroke-opacity:1"
     d="m 471.10156,61.10156 h 60 v 20 h -60 z m 0,0"
     id="path104" />
  <path
     style="fill:none;stroke:#000000;stroke-width:1.00248361;stroke-linecap:butt;stroke-linejoin:miter;stroke-miterlimit:10;stroke-opacity:1"
     d="m 481.10156,151.10156 c 0,-5.52344 -4.45703,-10 -9.94921,-10 -5.4961,0 -9.95313,4.47656 -9.95313,10"
     id="path106" />
  <path
     style="fill:none;stroke:#000000;stroke-width:1.00248361;stroke-linecap:butt;stroke-linejoin:miter;stroke-miterlimit:10;stroke-opacity:1"
     d="m 461.19922,151.10156 v 20 h 19.90234 v -20"
     id="path108" />
  <path
     style="fill:none;stroke:#000000;stroke-width:1.00248361;stroke-linecap:butt;stroke-linejoin:miter;stroke-miterlimit:10;stroke-opacity:1"
     d="m 521.10156,151.10156 c 0,-5.52344 -4.45703,-10 -9.94921,-10 -5.4961,0 -9.95313,4.47656 -9.95313,10"
     id="path110" />
  <path
     style="fill:none;stroke:#000000;stroke-width:1.00248361;stroke-linecap:butt;stroke-linejoin:miter;stroke-miterlimit:10;stroke-opacity:1"
     d="m 501.19922,151.10156 v 20 h 19.90234 v -20"
     id="path112" />
  <path
     style="fill:none;stroke:#000000;stroke-width:1;stroke-linecap:butt;stroke-linejoin:miter;stroke-miterlimit:10;stroke-opacity:1"
     d="m 498.58984,88.40234 -19.48828,56.69922"
     id="path114" />
  <path
     style="fill:#000000;fill-opacity:1;fill-rule:evenodd;stroke:#000000;stroke-width:1;stroke-linecap:butt;stroke-linejoin:miter;stroke-miterlimit:10;stroke-opacity:1"
     d="m 501.02734,81.3125 1.4766,11.08204 -3.91406,-3.9922 -5.54296,0.7422 z m 0,0"
     id="path116" />
  <path
     style="fill:none;stroke:#000000;stroke-width:1;stroke-linecap:butt;stroke-linejoin:miter;stroke-miterlimit:10;stroke-opacity:1"
     d="m 485.58594,88.67188 -10.48438,52.42968"
     id="path118" />
  <path
     style="fill:#000000;fill-opacity:1;fill-rule:evenodd;stroke:#000000;stroke-width:1;stroke-linecap:butt;stroke-linejoin:miter;stroke-miterlimit:10;stroke-opacity:1"
     d="m 487.05468,81.32032 2.94142,10.78514 -4.41016,-3.43358 -5.39454,1.47266 z m 0,0"
     id="path120" />
  <path
     style="fill:none;stroke:#000000;stroke-width:1;stroke-linecap:butt;stroke-linejoin:miter;stroke-miterlimit:10;stroke-opacity:1"
     d="m 453.13282,108.55078 9.96874,36.55078"
     id="path122" />
  <path
     style="fill:#000000;fill-opacity:1;fill-rule:evenodd;stroke:#000000;stroke-width:1;stroke-linecap:butt;stroke-linejoin:miter;stroke-miterlimit:10;stroke-opacity:1"
     d="m 451.16016,101.3164 7.45312,8.33204 -5.48046,-1.09766 -4.16798,3.72656 z m 0,0"
     id="path124" />
  <path
     style="fill:none;stroke:#000000;stroke-width:1;stroke-linecap:butt;stroke-linejoin:miter;stroke-miterlimit:10;stroke-opacity:1"
     d="m 462.2461,108.73828 4.85546,32.36328"
     id="path126" />
  <path
     style="fill:#000000;fill-opacity:1;fill-rule:evenodd;stroke:#000000;stroke-width:1;stroke-linecap:butt;stroke-linejoin:miter;stroke-miterlimit:10;stroke-opacity:1"
     d="m 461.13282,101.32032 6.42968,9.14844 -5.3164,-1.73048 -4.57422,3.21484 z m 0,0"
     id="path128" />
  <path
     style="fill:none;stroke:#000000;stroke-width:1;stroke-linecap:butt;stroke-linejoin:miter;stroke-miterlimit:10;stroke-dasharray:2, 2;stroke-opacity:1"
     d="M 516.94532,135.6836 501.10156,81.10156"
     id="path130" />
  <path
     style="fill:#000000;fill-opacity:1;fill-rule:evenodd;stroke:#000000;stroke-width:1;stroke-linecap:butt;stroke-linejoin:miter;stroke-miterlimit:10;stroke-opacity:1"
     d="m 519.03906,142.88672 -7.58984,-8.21094 5.4961,1.00782 4.10546,-3.79688 z m 0,0"
     id="path132" />
  <path
     style="fill:none;stroke:#000000;stroke-width:1;stroke-linecap:butt;stroke-linejoin:miter;stroke-miterlimit:10;stroke-dasharray:2, 2;stroke-opacity:1"
     d="M 499.44922,137.55468 487.10156,81.10156"
     id="path134" />
  <path
     style="fill:#000000;fill-opacity:1;fill-rule:evenodd;stroke:#000000;stroke-width:1;stroke-linecap:butt;stroke-linejoin:miter;stroke-miterlimit:10;stroke-opacity:1"
     d="m 501.05078,144.88282 -7.01952,-8.70314 5.41796,1.375 4.35156,-3.51172 z m 0,0"
     id="path136" />
  <path
     style="fill:#ff8585;fill-opacity:1;fill-rule:evenodd;stroke:#000000;stroke-width:1;stroke-linecap:butt;stroke-linejoin:miter;stroke-miterlimit:10;stroke-opacity:1"
     d="m 521.10156,191.10156 c 0,5.51954 -4.48046,10 -10,10 -5.52344,0 -10,-4.48046 -10,-10 0,-5.52344 4.47656,-10 10,-10 5.51954,0 10,4.47656 10,10"
     id="path138" />
</svg>
