<?xml version="1.0" encoding="UTF-8" standalone="no"?>
<!-- Created with Inkscape (http://www.inkscape.org/) -->

<svg
   xmlns:dc="http://purl.org/dc/elements/1.1/"
   xmlns:cc="http://creativecommons.org/ns#"
   xmlns:rdf="http://www.w3.org/1999/02/22-rdf-syntax-ns#"
   xmlns:svg="http://www.w3.org/2000/svg"
   xmlns="http://www.w3.org/2000/svg"
   xmlns:xlink="http://www.w3.org/1999/xlink"
   xmlns:sodipodi="http://sodipodi.sourceforge.net/DTD/sodipodi-0.dtd"
   xmlns:inkscape="http://www.inkscape.org/namespaces/inkscape"
   width="64"
   height="64"
   id="svg7110"
   version="1.1"
   inkscape:version="0.92.1 r15371"
   sodipodi:docname="event-prox-advanced.svg"
   viewBox="0 0 60.000003 60.000003">
  <defs
     id="defs7112">
    <linearGradient
       gradientUnits="objectBoundingBox"
       x1="0"
       y1="0"
       x2="1"
       y2="0"
       id="gradient2-1">
      <stop
         offset="0"
         stop-color="#000000"
         stop-opacity="1"
         id="stop115-7" />
      <stop
         offset="1"
         stop-color="#ff0000"
         stop-opacity="1"
         id="stop117-4" />
    </linearGradient>
    <linearGradient
       gradientUnits="objectBoundingBox"
       x1="0"
       y1="0"
       x2="1"
       y2="0"
       id="gradient3-0">
      <stop
         offset="0"
         stop-color="#000000"
         stop-opacity="1"
         id="stop120-9" />
      <stop
         offset="1"
         stop-color="#00ff00"
         stop-opacity="1"
         id="stop122-4" />
    </linearGradient>
    <linearGradient
       gradientUnits="objectBoundingBox"
       x1="0"
       y1="0"
       x2="1"
       y2="0"
       id="gradient4-8">
      <stop
         offset="0"
         stop-color="#000000"
         stop-opacity="1"
         id="stop125-8" />
      <stop
         offset="1"
         stop-color="#0000ff"
         stop-opacity="1"
         id="stop127-2" />
    </linearGradient>
    <linearGradient
       inkscape:collect="always"
       xlink:href="#gradient5-4"
       id="linearGradient7069"
       gradientUnits="userSpaceOnUse"
       gradientTransform="matrix(2.0514223,0,0,0.48746668,1980.1973,515.1436)"
       x1="0"
       y1="0"
       x2="98.468269"
       y2="0" />
    <linearGradient
       gradientUnits="objectBoundingBox"
       x1="0"
       y1="0"
       x2="1"
       y2="0"
       id="gradient5-4">
      <stop
         offset="0"
         stop-color="#000000"
         stop-opacity="1"
         id="stop130-5" />
      <stop
         offset="1"
         stop-color="#ff0000"
         stop-opacity="1"
         id="stop132-5" />
    </linearGradient>
    <linearGradient
       inkscape:collect="always"
       xlink:href="#gradient6-1"
       id="linearGradient7071"
       gradientUnits="userSpaceOnUse"
       gradientTransform="matrix(2.0514223,0,0,0.48746668,1980.1973,579.1436)"
       x1="0"
       y1="0"
       x2="98.468269"
       y2="0" />
    <linearGradient
       gradientUnits="objectBoundingBox"
       x1="0"
       y1="0"
       x2="1"
       y2="0"
       id="gradient6-1">
      <stop
         offset="0"
         stop-color="#000000"
         stop-opacity="1"
         id="stop135-7" />
      <stop
         offset="1"
         stop-color="#00ff00"
         stop-opacity="1"
         id="stop137-1" />
    </linearGradient>
    <linearGradient
       inkscape:collect="always"
       xlink:href="#gradient7-1"
       id="linearGradient7073"
       gradientUnits="userSpaceOnUse"
       gradientTransform="matrix(2.0514223,0,0,0.48746668,1980.1973,643.1436)"
       x1="0"
       y1="0"
       x2="98.468269"
       y2="0" />
    <linearGradient
       gradientUnits="objectBoundingBox"
       x1="0"
       y1="0"
       x2="1"
       y2="0"
       id="gradient7-1">
      <stop
         offset="0"
         stop-color="#000000"
         stop-opacity="1"
         id="stop140-5" />
      <stop
         offset="1"
         stop-color="#0000ff"
         stop-opacity="1"
         id="stop142-2" />
    </linearGradient>
  </defs>
  <sodipodi:namedview
     id="base"
     pagecolor="#ffffff"
     bordercolor="#666666"
     borderopacity="1.0"
     inkscape:pageopacity="0.0"
     inkscape:pageshadow="2"
     inkscape:zoom="11.2"
     inkscape:cx="43.016829"
     inkscape:cy="33.642001"
     inkscape:document-units="px"
     inkscape:current-layer="layer1"
     showgrid="false"
     fit-margin-top="0"
     fit-margin-left="0"
     fit-margin-right="0"
     fit-margin-bottom="0"
     inkscape:window-width="944"
     inkscape:window-height="1002"
     inkscape:window-x="960"
     inkscape:window-y="0"
     inkscape:window-maximized="0" />
  <metadata
     id="metadata7115">
    <rdf:RDF>
      <cc:Work
         rdf:about="">
        <dc:format>image/svg+xml</dc:format>
        <dc:type
           rdf:resource="http://purl.org/dc/dcmitype/StillImage" />
        <dc:title></dc:title>
      </cc:Work>
    </rdf:RDF>
  </metadata>
  <g
     inkscape:label="Layer 1"
     inkscape:groupmode="layer"
     id="layer1"
     transform="translate(200.71353,-427.36172)">
    <g
       id="g11270"
       transform="matrix(0.23437501,0,0,0.23437501,-1122.2576,610.40452)">
      <path
         style="font-style:normal;font-weight:400;font-size:8.25px;font-family:'MS Shell Dlg 2';vector-effect:non-scaling-stroke;fill:#f6871f;fill-opacity:1;fill-rule:evenodd;stroke:none"
         inkscape:connector-curvature="0"
         d="m 3931.9212,-775.9826 c 0,-2.76142 2.2386,-5 5,-5 h 246 c 2.761,0 5,2.23858 5,5 v 246 c 0,2.761 -2.239,5 -5,5 h -246 c -2.7614,0 -5,-2.239 -5,-5 v -246"
         id="path8320" />
      <path
         style="font-style:normal;font-weight:400;font-size:8.25px;font-family:'MS Shell Dlg 2';vector-effect:non-scaling-stroke;fill:#ffffff;fill-opacity:1;fill-rule:evenodd;stroke:none"
         inkscape:connector-curvature="0"
         d="m 4183.9212,-698.9826 c 0,-39.7645 -55.517,-72 -124,-72 -68.4833,0 -124,32.2355 -124,72 h 248"
         id="path8324" />
      <path
         style="font-style:normal;font-weight:400;font-size:8.25px;font-family:'MS Shell Dlg 2';vector-effect:non-scaling-stroke;fill:#ffffff;fill-opacity:1;fill-rule:evenodd;stroke:none"
         inkscape:connector-curvature="0"
         d="m 3935.9212,-699.9826 c 0,-2.7614 2.2386,-5 5,-5 h 238 c 2.761,0 5,2.2386 5,5 v 166 c 0,2.761 -2.239,5 -5,5 h -238 c -2.7614,0 -5,-2.239 -5,-5 v -166"
         id="path8326" />
      <path
         style="font-style:normal;font-weight:400;font-size:8.25px;font-family:'MS Shell Dlg 2';vector-effect:non-scaling-stroke;fill:#dcdcdc;fill-opacity:1;fill-rule:evenodd;stroke:none"
         inkscape:connector-curvature="0"
         d="m 3963.9212,-680.9826 h 192 v 96 h -192 v -96"
         id="path8330" />
      <path
         inkscape:connector-curvature="0"
         d="m 3963.9212,-680.9826 h 192 v 48 h -192 v -48"
         id="path8334"
         style="font-style:normal;font-weight:400;font-size:8.25px;font-family:'MS Shell Dlg 2';vector-effect:none;fill:none;stroke:#c0c0c0;stroke-width:4;stroke-linecap:square;stroke-linejoin:round;stroke-opacity:1" />
      <path
         inkscape:connector-curvature="0"
         d="m 3963.9212,-632.9826 h 192 v 48 h -192 v -48"
         id="path8336"
         style="font-style:normal;font-weight:400;font-size:8.25px;font-family:'MS Shell Dlg 2';vector-effect:none;fill:none;stroke:#c0c0c0;stroke-width:4;stroke-linecap:square;stroke-linejoin:round;stroke-opacity:1" />
      <path
         style="font-style:normal;font-weight:400;font-size:8.25px;font-family:'MS Shell Dlg 2';vector-effect:none;fill:#dcdcdc;fill-opacity:1;fill-rule:evenodd;stroke:#c0c0c0;stroke-width:4.99999952;stroke-linecap:round;stroke-linejoin:round;stroke-opacity:1"
         inkscape:connector-curvature="0"
         d="m 3940.9619,-722.8617 24.5134,-20.56921 20.5692,24.51341 -24.5134,20.56921 -20.5692,-24.51341"
         id="path8344" />
      <path
         style="font-style:normal;font-weight:400;font-size:8.25px;font-family:'MS Shell Dlg 2';vector-effect:none;fill:#dcdcdc;fill-opacity:1;fill-rule:evenodd;stroke:#c0c0c0;stroke-width:5.00000143;stroke-linecap:round;stroke-linejoin:round;stroke-opacity:1"
         inkscape:connector-curvature="0"
         d="m 3988.1108,-756.49937 30.0702,-10.94464 10.9446,30.07018 -30.0702,10.94464 -10.9446,-30.07018"
         id="path8352" />
      <path
         style="font-style:normal;font-weight:400;font-size:8.25px;font-family:'MS Shell Dlg 2';vector-effect:none;fill:#dcdcdc;fill-opacity:1;fill-rule:evenodd;stroke:#c0c0c0;stroke-width:5;stroke-linecap:round;stroke-linejoin:round;stroke-opacity:1"
         inkscape:connector-curvature="0"
         d="m 4043.9212,-771.9826 h 32 v 32 h -32 v -32"
         id="path8360" />
      <path
         style="font-style:normal;font-weight:400;font-size:8.25px;font-family:'MS Shell Dlg 2';vector-effect:none;fill:#dcdcdc;fill-opacity:1;fill-rule:evenodd;stroke:#c0c0c0;stroke-width:5.00000143;stroke-linecap:round;stroke-linejoin:round;stroke-opacity:1"
         inkscape:connector-curvature="0"
         d="m 4101.6614,-767.44401 30.0702,10.94464 -10.9446,30.07018 -30.0702,-10.94464 10.9446,-30.07018"
         id="path8368" />
      <path
         style="font-style:normal;font-weight:400;font-size:8.25px;font-family:'MS Shell Dlg 2';vector-effect:none;fill:#dcdcdc;fill-opacity:1;fill-rule:evenodd;stroke:#c0c0c0;stroke-width:4.99999952;stroke-linecap:round;stroke-linejoin:round;stroke-opacity:1"
         inkscape:connector-curvature="0"
         d="m 4154.3671,-743.43091 24.5134,20.56921 -20.5692,24.51341 -24.5134,-20.56921 20.5692,-24.51341"
         id="path8376" />
      <path
         style="font-style:normal;font-weight:400;font-size:8.25px;font-family:'MS Shell Dlg 2';vector-effect:none;fill:#dcdcdc;fill-opacity:1;fill-rule:evenodd;stroke:#c0c0c0;stroke-width:5;stroke-linecap:round;stroke-linejoin:round;stroke-opacity:1"
         inkscape:connector-curvature="0"
         d="m 3979.9212,-562.9826 h 32 v 32 h -32 v -32"
         id="path8384" />
      <path
         style="font-style:normal;font-weight:400;font-size:8.25px;font-family:'MS Shell Dlg 2';vector-effect:none;fill:#dcdcdc;fill-opacity:1;fill-rule:evenodd;stroke:#c0c0c0;stroke-width:5;stroke-linecap:round;stroke-linejoin:round;stroke-opacity:1"
         inkscape:connector-curvature="0"
         d="m 4107.9212,-562.9826 h 32 v 32 h -32 v -32"
         id="path8392" />
    </g>
  </g>
</svg>
