<?xml version="1.0" encoding="UTF-8" standalone="no"?>
<!-- Created with Inkscape (http://www.inkscape.org/) -->

<svg
   xmlns:dc="http://purl.org/dc/elements/1.1/"
   xmlns:cc="http://creativecommons.org/ns#"
   xmlns:rdf="http://www.w3.org/1999/02/22-rdf-syntax-ns#"
   xmlns:svg="http://www.w3.org/2000/svg"
   xmlns="http://www.w3.org/2000/svg"
   xmlns:sodipodi="http://sodipodi.sourceforge.net/DTD/sodipodi-0.dtd"
   xmlns:inkscape="http://www.inkscape.org/namespaces/inkscape"
   width="64"
   height="64"
   id="svg7110"
   version="1.1"
   inkscape:version="0.92.1 r15371"
   sodipodi:docname="event-ground.svg">
  <defs
     id="defs7112" />
  <sodipodi:namedview
     id="base"
     pagecolor="#ffffff"
     bordercolor="#666666"
     borderopacity="1.0"
     inkscape:pageopacity="0.0"
     inkscape:pageshadow="2"
     inkscape:zoom="7.9195959"
     inkscape:cx="45.648392"
     inkscape:cy="43.910867"
     inkscape:document-units="px"
     inkscape:current-layer="layer1"
     showgrid="false"
     fit-margin-top="0"
     fit-margin-left="0"
     fit-margin-right="0"
     fit-margin-bottom="0"
     inkscape:window-width="944"
     inkscape:window-height="1002"
     inkscape:window-x="960"
     inkscape:window-y="0"
     inkscape:window-maximized="0" />
  <metadata
     id="metadata7115">
    <rdf:RDF>
      <cc:Work
         rdf:about="">
        <dc:format>image/svg+xml</dc:format>
        <dc:type
           rdf:resource="http://purl.org/dc/dcmitype/StillImage" />
        <dc:title></dc:title>
      </cc:Work>
    </rdf:RDF>
  </metadata>
  <g
     inkscape:label="Layer 1"
     inkscape:groupmode="layer"
     id="layer1"
     transform="translate(-35.047808,-392.61483)">
    <g
       id="g7002"
       transform="matrix(0.23437497,0,0,0.234375,-359.25147,388.82893)">
      <path
         id="path622-6"
         d="m 1682.3438,21.486507 c 0,-2.945515 2.3878,-5.333334 5.3333,-5.333334 h 262.4 c 2.9451,0 5.3334,2.387819 5.3334,5.333334 V 283.88651 c 0,2.94506 -2.3883,5.33333 -5.3334,5.33333 h -262.4 c -2.9455,0 -5.3333,-2.38827 -5.3333,-5.33333 V 21.486507"
         inkscape:connector-curvature="0"
         style="font-style:normal;font-weight:400;font-size:8.25px;font-family:'MS Shell Dlg 2';vector-effect:non-scaling-stroke;fill:#f6871f;fill-opacity:1;fill-rule:evenodd;stroke:none;stroke-width:1.06666672" />
      <path
         id="path626-3"
         d="m 1951.1438,103.61984 c 0,-42.415467 -59.2181,-76.8 -132.2667,-76.8 -73.0488,0 -132.2666,34.384533 -132.2666,76.8 h 264.5333"
         inkscape:connector-curvature="0"
         style="font-style:normal;font-weight:400;font-size:8.25px;font-family:'MS Shell Dlg 2';vector-effect:non-scaling-stroke;fill:#ffffff;fill-opacity:1;fill-rule:evenodd;stroke:none;stroke-width:1.06666672" />
      <path
         id="path628-9"
         d="m 1686.6105,102.55317 c 0,-2.94549 2.3878,-5.33333 5.3333,-5.33333 h 253.8667 c 2.945,0 5.3333,2.38784 5.3333,5.33333 v 177.06667 c 0,2.94507 -2.3883,5.33333 -5.3333,5.33333 h -253.8667 c -2.9455,0 -5.3333,-2.38826 -5.3333,-5.33333 V 102.55317"
         inkscape:connector-curvature="0"
         style="font-style:normal;font-weight:400;font-size:8.25px;font-family:'MS Shell Dlg 2';vector-effect:non-scaling-stroke;fill:#ffffff;fill-opacity:1;fill-rule:evenodd;stroke:none;stroke-width:1.06666672" />
      <path
         id="path632-4"
         d="m 1682.3438,184.68651 h 19.2 v 85.33333 h -19.2 v -85.33333"
         inkscape:connector-curvature="0"
         style="font-style:normal;font-weight:400;font-size:8.25px;font-family:'MS Shell Dlg 2';vector-effect:non-scaling-stroke;fill:#000000;fill-opacity:1;fill-rule:evenodd;stroke:none;stroke-width:1.06666672" />
      <path
         id="path634-6"
         d="m 1936.2105,184.68651 h 19.2 v 85.33333 h -19.2 v -85.33333"
         inkscape:connector-curvature="0"
         style="font-style:normal;font-weight:400;font-size:8.25px;font-family:'MS Shell Dlg 2';vector-effect:non-scaling-stroke;fill:#000000;fill-opacity:1;fill-rule:evenodd;stroke:none;stroke-width:1.06666672" />
      <path
         id="path642-1"
         d="m 1769.8105,41.753173 h 34.1333 v 34.133334 h -34.1333 V 41.753173"
         inkscape:connector-curvature="0"
         style="font-style:normal;font-weight:400;font-size:8.25px;font-family:'MS Shell Dlg 2';vector-effect:none;fill:#dcdcdc;fill-opacity:1;fill-rule:evenodd;stroke:#c0c0c0;stroke-width:5.33333349;stroke-linecap:round;stroke-linejoin:round;stroke-opacity:1" />
      <path
         id="path650-6"
         d="m 1833.8105,41.753173 h 34.1333 v 34.133334 h -34.1333 V 41.753173"
         inkscape:connector-curvature="0"
         style="font-style:normal;font-weight:400;font-size:8.25px;font-family:'MS Shell Dlg 2';vector-effect:none;fill:#dcdcdc;fill-opacity:1;fill-rule:evenodd;stroke:#c0c0c0;stroke-width:5.33333349;stroke-linecap:round;stroke-linejoin:round;stroke-opacity:1" />
    </g>
  </g>
</svg>
