{
  "author_name": "Kārlis Dambrāns",
  "author_uri": "https://www.flickr.com/people/65265630@N03?rb=1",
  "licence": "CC-BY-2.0",
  "source_name": "Flickr",
  "source_uri": "https://www.flickr.com/photos/janitors/15860914940"
}
