<?xml version="1.0" encoding="UTF-8" standalone="no"?>
<svg
   xmlns:dc="http://purl.org/dc/elements/1.1/"
   xmlns:cc="http://creativecommons.org/ns#"
   xmlns:rdf="http://www.w3.org/1999/02/22-rdf-syntax-ns#"
   xmlns:svg="http://www.w3.org/2000/svg"
   xmlns="http://www.w3.org/2000/svg"
   xmlns:xlink="http://www.w3.org/1999/xlink"
   xmlns:sodipodi="http://sodipodi.sourceforge.net/DTD/sodipodi-0.dtd"
   xmlns:inkscape="http://www.inkscape.org/namespaces/inkscape"
   id="svg100"
   version="1.1"
   viewBox="0 0 323 164"
   height="164pt"
   width="323pt"
   sodipodi:docname="vector.svg"
   inkscape:version="0.92.1 r15371">
  <sodipodi:namedview
     pagecolor="#ffffff"
     bordercolor="#666666"
     borderopacity="1"
     objecttolerance="10"
     gridtolerance="10"
     guidetolerance="10"
     inkscape:pageopacity="0"
     inkscape:pageshadow="2"
     inkscape:window-width="975"
     inkscape:window-height="480"
     id="namedview55"
     showgrid="false"
     inkscape:zoom="0.79411765"
     inkscape:cx="217.85185"
     inkscape:cy="104.2963"
     inkscape:window-x="79"
     inkscape:window-y="27"
     inkscape:window-maximized="0"
     inkscape:current-layer="svg100" />
  <metadata
     id="metadata104">
    <rdf:RDF>
      <cc:Work
         rdf:about="">
        <dc:format>image/svg+xml</dc:format>
        <dc:type
           rdf:resource="http://purl.org/dc/dcmitype/StillImage" />
        <dc:title></dc:title>
        <cc:license
           rdf:resource="http://creativecommons.org/licenses/by-nc-sa/4.0/" />
        <dc:creator>
          <cc:Agent>
            <dc:title>Stefan Rothe</dc:title>
          </cc:Agent>
        </dc:creator>
      </cc:Work>
      <cc:License
         rdf:about="http://creativecommons.org/licenses/by-nc-sa/4.0/">
        <cc:permits
           rdf:resource="http://creativecommons.org/ns#Reproduction" />
        <cc:permits
           rdf:resource="http://creativecommons.org/ns#Distribution" />
        <cc:requires
           rdf:resource="http://creativecommons.org/ns#Notice" />
        <cc:requires
           rdf:resource="http://creativecommons.org/ns#Attribution" />
        <cc:prohibits
           rdf:resource="http://creativecommons.org/ns#CommercialUse" />
        <cc:permits
           rdf:resource="http://creativecommons.org/ns#DerivativeWorks" />
        <cc:requires
           rdf:resource="http://creativecommons.org/ns#ShareAlike" />
      </cc:License>
    </rdf:RDF>
  </metadata>
  <defs
     id="defs31">
    <g
       id="g29">
      <symbol
         id="glyph0-0"
         overflow="visible">
        <path
           id="path2"
           d="M 0.84375 3 L 0.84375 -11.984375 L 9.34375 -11.984375 L 9.34375 3 Z M 1.796875 2.0625 L 8.40625 2.0625 L 8.40625 -11.03125 L 1.796875 -11.03125 Z M 1.796875 2.0625 "
           style="stroke:none;" />
      </symbol>
      <symbol
         id="glyph0-1"
         overflow="visible">
        <path
           id="path5"
           d="M 2.109375 -1.40625 L 4.84375 -1.40625 L 4.84375 -10.859375 L 1.875 -10.265625 L 1.875 -11.796875 L 4.828125 -12.390625 L 6.515625 -12.390625 L 6.515625 -1.40625 L 9.25 -1.40625 L 9.25 0 L 2.109375 0 Z M 2.109375 -1.40625 "
           style="stroke:none;" />
      </symbol>
      <symbol
         id="glyph0-2"
         overflow="visible">
        <path
           id="path8"
           d="M 5.828125 -4.671875 C 4.585938 -4.671875 3.726562 -4.53125 3.25 -4.25 C 2.78125 -3.96875 2.546875 -3.488281 2.546875 -2.8125 C 2.546875 -2.269531 2.722656 -1.835938 3.078125 -1.515625 C 3.441406 -1.191406 3.929688 -1.03125 4.546875 -1.03125 C 5.390625 -1.03125 6.066406 -1.332031 6.578125 -1.9375 C 7.085938 -2.539062 7.34375 -3.335938 7.34375 -4.328125 L 7.34375 -4.671875 Z M 8.875 -5.296875 L 8.875 0 L 7.34375 0 L 7.34375 -1.40625 C 7 -0.84375 6.566406 -0.425781 6.046875 -0.15625 C 5.523438 0.101562 4.890625 0.234375 4.140625 0.234375 C 3.179688 0.234375 2.421875 -0.03125 1.859375 -0.5625 C 1.296875 -1.09375 1.015625 -1.804688 1.015625 -2.703125 C 1.015625 -3.753906 1.363281 -4.546875 2.0625 -5.078125 C 2.769531 -5.609375 3.816406 -5.875 5.203125 -5.875 L 7.34375 -5.875 L 7.34375 -6.015625 C 7.34375 -6.722656 7.109375 -7.265625 6.640625 -7.640625 C 6.179688 -8.023438 5.535156 -8.21875 4.703125 -8.21875 C 4.171875 -8.21875 3.65625 -8.15625 3.15625 -8.03125 C 2.65625 -7.90625 2.171875 -7.71875 1.703125 -7.46875 L 1.703125 -8.875 C 2.265625 -9.09375 2.804688 -9.253906 3.328125 -9.359375 C 3.859375 -9.460938 4.367188 -9.515625 4.859375 -9.515625 C 6.203125 -9.515625 7.207031 -9.164062 7.875 -8.46875 C 8.539062 -7.769531 8.875 -6.710938 8.875 -5.296875 Z M 8.875 -5.296875 "
           style="stroke:none;" />
      </symbol>
      <symbol
         id="glyph0-3"
         overflow="visible">
        <path
           id="path11"
           d="M 5.40625 -11.296875 C 4.539062 -11.296875 3.890625 -10.867188 3.453125 -10.015625 C 3.023438 -9.160156 2.8125 -7.882812 2.8125 -6.1875 C 2.8125 -4.488281 3.023438 -3.210938 3.453125 -2.359375 C 3.890625 -1.515625 4.539062 -1.09375 5.40625 -1.09375 C 6.269531 -1.09375 6.921875 -1.515625 7.359375 -2.359375 C 7.796875 -3.210938 8.015625 -4.488281 8.015625 -6.1875 C 8.015625 -7.882812 7.796875 -9.160156 7.359375 -10.015625 C 6.921875 -10.867188 6.269531 -11.296875 5.40625 -11.296875 Z M 5.40625 -12.625 C 6.789062 -12.625 7.847656 -12.070312 8.578125 -10.96875 C 9.316406 -9.875 9.6875 -8.28125 9.6875 -6.1875 C 9.6875 -4.101562 9.316406 -2.507812 8.578125 -1.40625 C 7.847656 -0.3125 6.789062 0.234375 5.40625 0.234375 C 4.019531 0.234375 2.957031 -0.3125 2.21875 -1.40625 C 1.488281 -2.507812 1.125 -4.101562 1.125 -6.1875 C 1.125 -8.28125 1.488281 -9.875 2.21875 -10.96875 C 2.957031 -12.070312 4.019531 -12.625 5.40625 -12.625 Z M 5.40625 -12.625 "
           style="stroke:none;" />
      </symbol>
      <symbol
         id="glyph0-4"
         overflow="visible">
        <path
           id="path14"
           d="M 3.265625 -1.40625 L 9.109375 -1.40625 L 9.109375 0 L 1.25 0 L 1.25 -1.40625 C 1.882812 -2.070312 2.75 -2.957031 3.84375 -4.0625 C 4.945312 -5.175781 5.640625 -5.890625 5.921875 -6.203125 C 6.453125 -6.804688 6.820312 -7.316406 7.03125 -7.734375 C 7.25 -8.160156 7.359375 -8.570312 7.359375 -8.96875 C 7.359375 -9.632812 7.128906 -10.171875 6.671875 -10.578125 C 6.210938 -10.992188 5.609375 -11.203125 4.859375 -11.203125 C 4.335938 -11.203125 3.785156 -11.109375 3.203125 -10.921875 C 2.617188 -10.742188 1.992188 -10.472656 1.328125 -10.109375 L 1.328125 -11.796875 C 2.003906 -12.066406 2.632812 -12.269531 3.21875 -12.40625 C 3.800781 -12.550781 4.335938 -12.625 4.828125 -12.625 C 6.109375 -12.625 7.128906 -12.300781 7.890625 -11.65625 C 8.660156 -11.007812 9.046875 -10.148438 9.046875 -9.078125 C 9.046875 -8.566406 8.945312 -8.082031 8.75 -7.625 C 8.5625 -7.175781 8.21875 -6.640625 7.71875 -6.015625 C 7.582031 -5.859375 7.140625 -5.394531 6.390625 -4.625 C 5.648438 -3.863281 4.609375 -2.789062 3.265625 -1.40625 Z M 3.265625 -1.40625 "
           style="stroke:none;" />
      </symbol>
      <symbol
         id="glyph0-5"
         overflow="visible">
        <path
           id="path17"
           d="M 6.890625 -6.6875 C 7.703125 -6.507812 8.332031 -6.148438 8.78125 -5.609375 C 9.226562 -5.066406 9.453125 -4.398438 9.453125 -3.609375 C 9.453125 -2.378906 9.03125 -1.429688 8.1875 -0.765625 C 7.351562 -0.0976562 6.160156 0.234375 4.609375 0.234375 C 4.085938 0.234375 3.550781 0.179688 3 0.078125 C 2.445312 -0.015625 1.878906 -0.164062 1.296875 -0.375 L 1.296875 -2 C 1.765625 -1.71875 2.273438 -1.507812 2.828125 -1.375 C 3.378906 -1.238281 3.957031 -1.171875 4.5625 -1.171875 C 5.613281 -1.171875 6.410156 -1.378906 6.953125 -1.796875 C 7.503906 -2.210938 7.78125 -2.816406 7.78125 -3.609375 C 7.78125 -4.335938 7.523438 -4.90625 7.015625 -5.3125 C 6.503906 -5.726562 5.789062 -5.9375 4.875 -5.9375 L 3.4375 -5.9375 L 3.4375 -7.3125 L 4.953125 -7.3125 C 5.773438 -7.3125 6.40625 -7.472656 6.84375 -7.796875 C 7.28125 -8.128906 7.5 -8.609375 7.5 -9.234375 C 7.5 -9.867188 7.269531 -10.351562 6.8125 -10.6875 C 6.363281 -11.03125 5.71875 -11.203125 4.875 -11.203125 C 4.414062 -11.203125 3.921875 -11.148438 3.390625 -11.046875 C 2.867188 -10.953125 2.296875 -10.800781 1.671875 -10.59375 L 1.671875 -12.09375 C 2.304688 -12.269531 2.898438 -12.398438 3.453125 -12.484375 C 4.015625 -12.578125 4.539062 -12.625 5.03125 -12.625 C 6.300781 -12.625 7.304688 -12.332031 8.046875 -11.75 C 8.796875 -11.164062 9.171875 -10.382812 9.171875 -9.40625 C 9.171875 -8.71875 8.972656 -8.132812 8.578125 -7.65625 C 8.179688 -7.1875 7.617188 -6.863281 6.890625 -6.6875 Z M 6.890625 -6.6875 "
           style="stroke:none;" />
      </symbol>
      <symbol
         id="glyph0-6"
         overflow="visible">
        <path
           id="path20"
           d="M 6.421875 -10.9375 L 2.1875 -4.3125 L 6.421875 -4.3125 Z M 5.984375 -12.390625 L 8.09375 -12.390625 L 8.09375 -4.3125 L 9.859375 -4.3125 L 9.859375 -2.921875 L 8.09375 -2.921875 L 8.09375 0 L 6.421875 0 L 6.421875 -2.921875 L 0.828125 -2.921875 L 0.828125 -4.546875 Z M 5.984375 -12.390625 "
           style="stroke:none;" />
      </symbol>
      <symbol
         id="glyph0-7"
         overflow="visible">
        <path
           id="path23"
           d="M 0.828125 -5.34375 L 5.296875 -5.34375 L 5.296875 -3.96875 L 0.828125 -3.96875 Z M 0.828125 -5.34375 "
           style="stroke:none;" />
      </symbol>
      <symbol
         id="glyph0-8"
         overflow="visible">
        <path
           id="path26"
           d="M 1.875 -0.25 L 1.875 -1.78125 C 2.289062 -1.582031 2.710938 -1.429688 3.140625 -1.328125 C 3.578125 -1.222656 4.003906 -1.171875 4.421875 -1.171875 C 5.523438 -1.171875 6.367188 -1.539062 6.953125 -2.28125 C 7.535156 -3.03125 7.867188 -4.160156 7.953125 -5.671875 C 7.628906 -5.203125 7.222656 -4.835938 6.734375 -4.578125 C 6.242188 -4.328125 5.695312 -4.203125 5.09375 -4.203125 C 3.851562 -4.203125 2.875 -4.578125 2.15625 -5.328125 C 1.4375 -6.078125 1.078125 -7.101562 1.078125 -8.40625 C 1.078125 -9.675781 1.453125 -10.695312 2.203125 -11.46875 C 2.953125 -12.238281 3.953125 -12.625 5.203125 -12.625 C 6.640625 -12.625 7.734375 -12.070312 8.484375 -10.96875 C 9.242188 -9.875 9.625 -8.28125 9.625 -6.1875 C 9.625 -4.226562 9.160156 -2.664062 8.234375 -1.5 C 7.304688 -0.34375 6.054688 0.234375 4.484375 0.234375 C 4.066406 0.234375 3.640625 0.191406 3.203125 0.109375 C 2.773438 0.0234375 2.332031 -0.09375 1.875 -0.25 Z M 5.203125 -5.515625 C 5.953125 -5.515625 6.546875 -5.769531 6.984375 -6.28125 C 7.429688 -6.800781 7.65625 -7.507812 7.65625 -8.40625 C 7.65625 -9.289062 7.429688 -9.992188 6.984375 -10.515625 C 6.546875 -11.035156 5.953125 -11.296875 5.203125 -11.296875 C 4.453125 -11.296875 3.851562 -11.035156 3.40625 -10.515625 C 2.96875 -9.992188 2.75 -9.289062 2.75 -8.40625 C 2.75 -7.507812 2.96875 -6.800781 3.40625 -6.28125 C 3.851562 -5.769531 4.453125 -5.515625 5.203125 -5.515625 Z M 5.203125 -5.515625 "
           style="stroke:none;" />
      </symbol>
    </g>
  </defs>
  <path
     style="fill:#ffffff;fill-opacity:1;fill-rule:evenodd;stroke:#000000;stroke-width:2;stroke-linecap:butt;stroke-linejoin:miter;stroke-miterlimit:10;stroke-opacity:1"
     d="m 62,62 h 40 v 40 H 62 Z m 0,0"
     id="path37" />
  <g
     style="fill:#000000;fill-opacity:1"
     id="g41">
    <use
       xlink:href="#glyph0-1"
       x="116.62891"
       y="47.889107"
       id="use39"
       width="100%"
       height="100%" />
  </g>
  <g
     style="fill:#000000;fill-opacity:1"
     id="g45">
    <use
       xlink:href="#glyph0-2"
       x="36.804688"
       y="87.889107"
       id="use43"
       width="100%"
       height="100%" />
  </g>
  <g
     style="fill:#000000;fill-opacity:1"
     id="g49">
    <use
       xlink:href="#glyph0-3"
       x="76.609375"
       y="47.889107"
       id="use47"
       width="100%"
       height="100%" />
  </g>
  <g
     style="fill:#000000;fill-opacity:1"
     id="g53">
    <use
       xlink:href="#glyph0-4"
       x="156.60938"
       y="47.889107"
       id="use51"
       width="100%"
       height="100%" />
  </g>
  <g
     style="fill:#000000;fill-opacity:1"
     id="g57">
    <use
       xlink:href="#glyph0-5"
       x="196.60938"
       y="47.889107"
       id="use55"
       width="100%"
       height="100%" />
  </g>
  <g
     style="fill:#000000;fill-opacity:1"
     id="g61">
    <use
       xlink:href="#glyph0-6"
       x="236.60938"
       y="47.889107"
       id="use59"
       width="100%"
       height="100%" />
  </g>
  <g
     style="fill:#000000;fill-opacity:1"
     id="g67">
    <use
       xlink:href="#glyph0-4"
       x="71.199219"
       y="87.889107"
       id="use63"
       width="100%"
       height="100%" />
    <use
       xlink:href="#glyph0-4"
       x="82.01519"
       y="87.889107"
       id="use65"
       width="100%"
       height="100%" />
  </g>
  <path
     style="fill:#ffffff;fill-opacity:1;fill-rule:evenodd;stroke:#000000;stroke-width:2;stroke-linecap:butt;stroke-linejoin:miter;stroke-miterlimit:10;stroke-opacity:1"
     d="m 102,62 h 40 v 40 h -40 z m 0,0"
     id="path69" />
  <g
     style="fill:#000000;fill-opacity:1"
     id="g75">
    <use
       xlink:href="#glyph0-1"
       x="111.19922"
       y="87.889107"
       id="use71"
       width="100%"
       height="100%" />
    <use
       xlink:href="#glyph0-1"
       x="122.01519"
       y="87.889107"
       id="use73"
       width="100%"
       height="100%" />
  </g>
  <path
     style="fill:#ffffff;fill-opacity:1;fill-rule:evenodd;stroke:#000000;stroke-width:2;stroke-linecap:butt;stroke-linejoin:miter;stroke-miterlimit:10;stroke-opacity:1"
     d="m 142,62 h 40 v 40 h -40 z m 0,0"
     id="path77" />
  <g
     style="fill:#000000;fill-opacity:1"
     id="g83">
    <use
       xlink:href="#glyph0-7"
       x="153.54297"
       y="87.889107"
       id="use79"
       width="100%"
       height="100%" />
    <use
       xlink:href="#glyph0-5"
       x="159.67714"
       y="87.889107"
       id="use81"
       width="100%"
       height="100%" />
  </g>
  <path
     style="fill:#ffffff;fill-opacity:1;fill-rule:evenodd;stroke:#000000;stroke-width:2;stroke-linecap:butt;stroke-linejoin:miter;stroke-miterlimit:10;stroke-opacity:1"
     d="m 182,62 h 40 v 40 h -40 z m 0,0"
     id="path85" />
  <g
     style="fill:#000000;fill-opacity:1"
     id="g91">
    <use
       xlink:href="#glyph0-1"
       x="191.19922"
       y="87.889107"
       id="use87"
       width="100%"
       height="100%" />
    <use
       xlink:href="#glyph0-8"
       x="202.0152"
       y="87.889107"
       id="use89"
       width="100%"
       height="100%" />
  </g>
  <path
     style="fill:#ffffff;fill-opacity:1;fill-rule:evenodd;stroke:#000000;stroke-width:2;stroke-linecap:butt;stroke-linejoin:miter;stroke-miterlimit:10;stroke-opacity:1"
     d="m 222,62 h 40 v 40 h -40 z m 0,0"
     id="path93" />
  <g
     style="fill:#000000;fill-opacity:1"
     id="g97">
    <use
       xlink:href="#glyph0-1"
       x="236.60938"
       y="87.889107"
       id="use95"
       width="100%"
       height="100%" />
  </g>
</svg>
