{
  "author_name": "Tom Jampen",
  "author_uri": "https://ict.mygymer.ch",
  "licence": "CC-BY-SA",
  "source_name": "mygymer.ch",
  "source_uri": "https://ict.mygymer.ch/lo/teach/exkurs-informatik/thymio/vpl"
}
